{
  "project_info": {
    "project_number": "580011583645",
    "firebase_url": "https://bikeapp-72de3.firebaseio.com",
    "project_id": "bikeapp-72de3",
    "storage_bucket": "bikeapp-72de3.appspot.com"
  },
  "client": [
    {
      "client_info": {
        "mobilesdk_app_id": "1:580011583645:android:f002a575bfa96f57",
        "android_client_info": {
          "package_name": "com.prisyazhnuy.bikeapp"
        }
      },
      "oauth_client": [
        {
          "client_id": "580011583645-ocf47nnujjksk2jvni87qsohogegb9sv.apps.googleusercontent.com",
          "client_type": 1,
          "android_info": {
            "package_name": "com.prisyazhnuy.bikeapp",
            "certificate_hash": "6d4a109150260f40759ef2a0abaf822f02c9d0be"
          }
        },
        {
          "client_id": "580011583645-3fnr7d3pv7qjancs6t3juadqaqtc7vgu.apps.googleusercontent.com",
          "client_type": 3
        }
      ],
      "api_key": [
        {
          "current_key": "AIzaSyCtHxrcKkrbe0m5wIOkwxPnQHFtAtd6FmE"
        }
      ],
      "services": {
        "analytics_service": {
          "status": 1
        },
        "appinvite_service": {
          "status": 2,
          "other_platform_oauth_client": [
            {
              "client_id": "580011583645-3fnr7d3pv7qjancs6t3juadqaqtc7vgu.apps.googleusercontent.com",
              "client_type": 3
            }
          ]
        },
        "ads_service": {
          "status": 2
        }
      }
    }
  ],
  "configuration_version": "1"
}